<?xml version="1.0" encoding="UTF-8" standalone="no"?>
<!-- Created with Inkscape (http://www.inkscape.org/) -->

<svg
   xmlns:dc="http://purl.org/dc/elements/1.1/"
   xmlns:cc="http://creativecommons.org/ns#"
   xmlns:rdf="http://www.w3.org/1999/02/22-rdf-syntax-ns#"
   xmlns:svg="http://www.w3.org/2000/svg"
   xmlns="http://www.w3.org/2000/svg"
   xmlns:sodipodi="http://sodipodi.sourceforge.net/DTD/sodipodi-0.dtd"
   xmlns:inkscape="http://www.inkscape.org/namespaces/inkscape"
   width="30"
   height="30"
   viewBox="0 0 30 30"
   id="svg2"
   version="1.1"
   inkscape:version="0.92.5 (2060ec1f9f, 2020-04-08)"
   sodipodi:docname="chevron.svg">
  <defs
     id="defs4" />
  <sodipodi:namedview
     id="base"
     borderopacity="1.0"
     inkscape:pageopacity="0.0"
     inkscape:pageshadow="2"
     inkscape:zoom="32"
     inkscape:cx="19.59591"
     inkscape:cy="11.616043"
     inkscape:document-units="px"
     inkscape:current-layer="layer1"
     showgrid="false"
     units="px"
     inkscape:window-width="1920"
     inkscape:window-height="1043"
     inkscape:window-x="1920"
     inkscape:window-y="0"
     inkscape:window-maximized="1" />
  <metadata
     id="metadata7">
    <rdf:RDF>
      <cc:Work
         rdf:about="">
        <dc:format>image/svg+xml</dc:format>
        <dc:type
           rdf:resource="http://purl.org/dc/dcmitype/StillImage" />
        <dc:title />
      </cc:Work>
    </rdf:RDF>
  </metadata>
  <g
     inkscape:label="Calque 1"
     inkscape:groupmode="layer"
     id="layer1"
     transform="translate(0,-1022.3622)">
    <path
       style="font-variant-east_asian:normal;opacity:1;vector-effect:none;fill:#000000;fill-opacity:1;stroke:#c1d72e;stroke-width:0.04419417;stroke-linecap:butt;stroke-linejoin:miter;stroke-miterlimit:4;stroke-dasharray:none;stroke-dashoffset:0;stroke-opacity:0"
       d="M 3.6699219,6.5898438 1.4550781,8.6152344 15,23.374272 28.544922,8.6152344 26.330078,6.5898438 15,18.759498 Z"
       transform="translate(0,1022.3622)"
       id="rect4136"
       inkscape:connector-curvature="0"
       sodipodi:nodetypes="ccccccc" />
    <path
       style="opacity:1;vector-effect:none;fill:#c1d72e;fill-opacity:0;stroke:#c1d72e;stroke-width:0.00195312;stroke-linecap:butt;stroke-linejoin:miter;stroke-miterlimit:4;stroke-dasharray:none;stroke-dashoffset:0;stroke-opacity:0"
       d="M 8.3030207,16.051907 C 4.6205412,12.040759 1.5823928,8.7238799 1.5515799,8.6810642 1.5016212,8.6116447 1.6104831,8.4984102 2.5572003,7.6350517 3.1411044,7.1025605 3.6352522,6.6613861 3.6553064,6.6546641 c 0.020054,-0.00672 2.5689998,2.7079052 5.6643235,6.0325049 3.0953231,3.324599 5.6518661,6.044726 5.6812061,6.044726 0.02934,0 2.580313,-2.71426 5.66883,-6.031688 3.088517,-3.3174289 5.632313,-6.0372977 5.652879,-6.0441532 0.03068,-0.010227 1.605493,1.3985777 2.060983,1.8437257 l 0.126839,0.1239581 -6.66243,7.2637874 c -3.664336,3.995083 -6.70452,7.307345 -6.755965,7.360583 l -0.09353,0.0968 z"
       id="path820"
       inkscape:connector-curvature="0"
       transform="translate(0,1022.3622)" />
    <path
       style="opacity:1;vector-effect:none;fill:#000000;fill-opacity:1;stroke:#c1d72e;stroke-width:0.00138107;stroke-linecap:butt;stroke-linejoin:miter;stroke-miterlimit:4;stroke-dasharray:none;stroke-dashoffset:0;stroke-opacity:0"
       d="M 8.3498737,16.106082 C 4.6977384,12.127841 1.6588617,8.8134548 1.5968142,8.7407779 L 1.4840007,8.6086379 2.5608015,7.6242629 C 3.1530419,7.0828567 3.6471782,6.6362385 3.6588821,6.6317781 3.6768395,6.6249344 14.619661,18.35265 14.898884,18.67799 l 0.09551,0.11128 5.663872,-6.083179 c 5.081408,-5.4575942 5.669565,-6.0790924 5.719231,-6.043441 0.136543,0.098012 2.129707,1.9436817 2.12201,1.964981 -0.01,0.027574 -13.362431,14.579277 -13.450748,14.658811 -0.0563,0.0507 -0.32349,-0.2357 -6.6988813,-7.18036 z"
       id="path822"
       inkscape:connector-curvature="0"
       transform="translate(0,1022.3622)" />
    <path
       style="opacity:1;vector-effect:none;fill:#c1d72e;fill-opacity:0;stroke:#c1d72e;stroke-width:0.00138107;stroke-linecap:butt;stroke-linejoin:miter;stroke-miterlimit:4;stroke-dasharray:none;stroke-dashoffset:0;stroke-opacity:0"
       d="M 14.551745,22.862674 C 14.312018,22.60066 12.160698,20.256627 9.7710331,17.653711 7.3813684,15.050796 4.5361811,11.951039 3.4483943,10.765364 L 1.4706001,8.6095895 1.547169,8.5466137 C 1.5892819,8.511977 2.0766954,8.0687942 2.63031,7.5617629 3.1839247,7.0547317 3.6466746,6.6362203 3.6586431,6.6317377 c 0.020759,-0.00777 1.0670403,1.1116304 7.8924309,8.4440273 1.648733,1.771205 3.099457,3.329217 3.22383,3.462249 l 0.226134,0.241876 3.74492,-4.02263 c 7.244989,-7.7822507 7.575967,-8.1348656 7.614086,-8.1118234 0.09111,0.055075 2.147485,1.9599394 2.139632,1.9819882 -0.0048,0.013587 -0.361188,0.4086676 -0.791886,0.8779579 -0.430698,0.4692905 -2.595808,2.8290363 -4.811354,5.2438803 -5.941413,6.475866 -7.853622,8.555683 -7.882746,8.573683 -0.01434,0.0089 -0.222218,-0.198258 -0.461945,-0.460272 z"
       id="path824"
       inkscape:connector-curvature="0"
       transform="translate(0,1022.3622)" />
    <path
       style="opacity:1;vector-effect:none;fill:#000000;fill-opacity:1;stroke:#c1d72e;stroke-width:0.00138107;stroke-linecap:butt;stroke-linejoin:miter;stroke-miterlimit:4;stroke-dasharray:none;stroke-dashoffset:0;stroke-opacity:0"
       d="M 14.551745,22.862674 C 14.312018,22.60066 12.160698,20.256627 9.7710331,17.653711 7.3813684,15.050796 4.5361811,11.951039 3.4483943,10.765364 L 1.4706001,8.6095895 1.547169,8.5466137 C 1.5892819,8.511977 2.0766954,8.0687942 2.63031,7.5617629 3.1839247,7.0547317 3.6466746,6.6362203 3.6586431,6.6317377 c 0.020759,-0.00777 1.0670403,1.1116304 7.8924309,8.4440273 1.648733,1.771205 3.099457,3.329217 3.22383,3.462249 l 0.226134,0.241876 3.74492,-4.02263 c 7.244989,-7.7822507 7.575967,-8.1348656 7.614086,-8.1118234 0.09111,0.055075 2.147485,1.9599394 2.139632,1.9819882 -0.0048,0.013587 -0.361188,0.4086676 -0.791886,0.8779579 -0.430698,0.4692905 -2.595808,2.8290363 -4.811354,5.2438803 -5.941413,6.475866 -7.853622,8.555683 -7.882746,8.573683 -0.01434,0.0089 -0.222218,-0.198258 -0.461945,-0.460272 z"
       id="path826"
       inkscape:connector-curvature="0"
       transform="translate(0,1022.3622)" />
    <path
       style="opacity:1;vector-effect:none;fill:#000000;fill-opacity:1;stroke:#c1d72e;stroke-width:0.00138107;stroke-linecap:butt;stroke-linejoin:miter;stroke-miterlimit:4;stroke-dasharray:none;stroke-dashoffset:0;stroke-opacity:0"
       d="M 13.678378,21.913653 C 12.255222,20.363831 2.901161,10.171342 2.0131267,9.2028156 L 1.4691138,8.6094933 1.5614389,8.5309406 C 1.6122178,8.4877366 2.0997048,8.0445754 2.6447435,7.5461379 3.1897822,7.0477004 3.6459444,6.6361643 3.6584372,6.6316131 3.6709301,6.627062 3.9270824,6.8872183 4.2276647,7.2097381 8.89525,12.217981 14.974948,18.749455 14.991072,18.772963 c 0.003,0.0044 1.684718,-1.795424 3.737048,-3.999701 7.299831,-7.8402846 7.59219,-8.1514086 7.636037,-8.126147 0.08911,0.051342 2.143876,1.956847 2.135551,1.9804267 -0.01026,0.02907 0.0022,0.015496 -6.64755,7.2618873 -2.791921,3.04244 -5.470827,5.963097 -5.953125,6.49035 -0.482298,0.527253 -0.883936,0.959665 -0.89253,0.960916 -0.0086,0.0012 -0.60625,-0.640918 -1.328125,-1.427042 z"
       id="path828"
       inkscape:connector-curvature="0"
       transform="translate(0,1022.3622)" />
    <path
       style="opacity:1;vector-effect:none;fill:#000000;fill-opacity:1;stroke:#c1d72e;stroke-width:0.00138107;stroke-linecap:butt;stroke-linejoin:miter;stroke-miterlimit:4;stroke-dasharray:none;stroke-dashoffset:0;stroke-opacity:0"
       d="M 13.661875,21.897809 C 9.2272616,17.072365 1.5476443,8.6993526 1.5164609,8.6557815 1.4846094,8.6112768 1.6274358,8.4694371 2.5573894,7.6220435 3.1502044,7.081858 3.6460972,6.6359872 3.6593735,6.6312197 c 0.022354,-0.00803 1.0029424,1.04082 8.5750445,9.1719533 1.508947,1.62035 2.755799,2.94609 2.770782,2.94609 0.01498,0 0.08117,-0.06075 0.147084,-0.135003 0.134018,-0.150969 7.315491,-7.862594 9.660107,-10.3732346 1.06884,-1.144526 1.523066,-1.6106338 1.553121,-1.5937501 0.06409,0.036 2.140993,1.9495994 2.140976,1.9726308 -1.9e-5,0.025694 -13.459182,14.6997869 -13.497053,14.7154029 -0.01056,0.0044 -0.616967,-0.642518 -1.34756,-1.4375 z"
       id="path830"
       inkscape:connector-curvature="0"
       transform="translate(0,1022.3622)" />
    <path
       style="opacity:1;vector-effect:none;fill:#000000;fill-opacity:1;stroke:#c1d72e;stroke-width:0.00138107;stroke-linecap:butt;stroke-linejoin:miter;stroke-miterlimit:4;stroke-dasharray:none;stroke-dashoffset:0;stroke-opacity:0"
       d="M 14.786906,23.116612 C 14.665092,22.991914 13.617381,21.856294 12.458658,20.593013 9.8395128,17.737526 1.6710232,8.8295932 1.5550678,8.7023879 l -0.085459,-0.09375 1.0447217,-0.953125 C 3.0889275,7.1312942 3.5851158,6.6840824 3.6169714,6.661709 3.6865124,6.612868 3.2009888,6.1006185 9.7127353,13.093013 c 2.6009837,2.792969 4.8548697,5.211444 5.0086357,5.37439 l 0.279573,0.296264 0.207467,-0.218455 c 0.114107,-0.120151 2.014132,-2.158938 4.222279,-4.53064 5.396529,-5.796243 6.886215,-7.3903494 6.906016,-7.3900945 0.01934,2.491e-4 0.287002,0.2417283 1.344797,1.2132687 0.421094,0.3867571 0.783919,0.7196444 0.806278,0.7397496 0.03239,0.029128 -0.07225,0.15982 -0.515023,0.6432236 -0.305621,0.3336677 -2.503311,2.7301056 -4.883755,5.3254186 -2.380444,2.595312 -5.121284,5.583594 -6.090756,6.640625 -0.969472,1.057031 -1.813793,1.974682 -1.876269,2.039224 l -0.113593,0.11735 z"
       id="path846"
       inkscape:connector-curvature="0"
       transform="translate(0,1022.3622)" />
  </g>
</svg>
